%YAML 1.1
%TAG !u! tag:unity3d.com,2011:
--- !u!1 &6951154091605713723
GameObject:
  m_ObjectHideFlags: 0
  m_CorrespondingSourceObject: {fileID: 0}
  m_PrefabInstance: {fileID: 0}
  m_PrefabAsset: {fileID: 0}
  serializedVersion: 6
  m_Component:
  - component: {fileID: 6951154091605713669}
  - component: {fileID: 6951154091605713722}
  - component: {fileID: 2421479764152300972}
  m_Layer: 9
  m_Name: number0
  m_TagString: Obstacle
  m_Icon: {fileID: 0}
  m_NavMeshLayer: 0
  m_StaticEditorFlags: 0
  m_IsActive: 1
--- !u!4 &6951154091605713669
Transform:
  m_ObjectHideFlags: 0
  m_CorrespondingSourceObject: {fileID: 0}
  m_PrefabInstance: {fileID: 0}
  m_PrefabAsset: {fileID: 0}
  m_GameObject: {fileID: 6951154091605713723}
  m_LocalRotation: {x: 0, y: 0, z: 0, w: 1}
  m_LocalPosition: {x: 0, y: 0, z: 0}
  m_LocalScale: {x: 1, y: 1, z: 1}
  m_Children: []
  m_Father: {fileID: 0}
  m_RootOrder: 0
  m_LocalEulerAnglesHint: {x: 0, y: 0, z: 0}
--- !u!212 &6951154091605713722
SpriteRenderer:
  m_ObjectHideFlags: 0
  m_CorrespondingSourceObject: {fileID: 0}
  m_PrefabInstance: {fileID: 0}
  m_PrefabAsset: {fileID: 0}
  m_GameObject: {fileID: 6951154091605713723}
  m_Enabled: 1
  m_CastShadows: 0
  m_ReceiveShadows: 0
  m_DynamicOccludee: 1
  m_MotionVectors: 1
  m_LightProbeUsage: 1
  m_ReflectionProbeUsage: 1
  m_RayTracingMode: 0
  m_RenderingLayerMask: 1
  m_RendererPriority: 0
  m_Materials:
  - {fileID: 10754, guid: 0000000000000000f000000000000000, type: 0}
  m_StaticBatchInfo:
    firstSubMesh: 0
    subMeshCount: 0
  m_StaticBatchRoot: {fileID: 0}
  m_ProbeAnchor: {fileID: 0}
  m_LightProbeVolumeOverride: {fileID: 0}
  m_ScaleInLightmap: 1
  m_ReceiveGI: 1
  m_PreserveUVs: 0
  m_IgnoreNormalsForChartDetection: 0
  m_ImportantGI: 0
  m_StitchLightmapSeams: 1
  m_SelectedEditorRenderState: 0
  m_MinimumChartSize: 4
  m_AutoUVMaxDistance: 0.5
  m_AutoUVMaxAngle: 89
  m_LightmapParameters: {fileID: 0}
  m_SortingLayerID: 0
  m_SortingLayer: 0
  m_SortingOrder: 0
  m_Sprite: {fileID: -4722972516820061017, guid: 7cc135831f0c3453aaef95b7e2f7c1bd,
    type: 3}
  m_Color: {r: 1, g: 1, b: 1, a: 1}
  m_FlipX: 0
  m_FlipY: 0
  m_DrawMode: 0
  m_Size: {x: 1.09, y: 1.4}
  m_AdaptiveModeThreshold: 0.5
  m_SpriteTileMode: 0
  m_WasSpriteAssigned: 1
  m_MaskInteraction: 0
  m_SpriteSortPoint: 0
--- !u!60 &2421479764152300972
PolygonCollider2D:
  m_ObjectHideFlags: 0
  m_CorrespondingSourceObject: {fileID: 0}
  m_PrefabInstance: {fileID: 0}
  m_PrefabAsset: {fileID: 0}
  m_GameObject: {fileID: 6951154091605713723}
  m_Enabled: 1
  m_Density: 1
  m_Material: {fileID: 0}
  m_IsTrigger: 0
  m_UsedByEffector: 0
  m_UsedByComposite: 0
  m_Offset: {x: 0, y: 0}
  m_SpriteTilingProperty:
    border: {x: 0, y: 0, z: 0, w: 0}
    pivot: {x: 0.5, y: 0.5}
    oldSize: {x: 1.09, y: 1.4}
    newSize: {x: 1.09, y: 1.4}
    adaptiveTilingThreshold: 0.5
    drawMode: 0
    adaptiveTiling: 0
  m_AutoTiling: 0
  m_Points:
    m_Paths:
    - - {x: -0.095, y: -0.63}
      - {x: -0.125, y: -0.65}
      - {x: -0.125, y: -0.66999996}
      - {x: -0.114999995, y: -0.69}
      - {x: 0.114999995, y: -0.69}
      - {x: 0.13499999, y: -0.66999996}
      - {x: 0.125, y: -0.63}
    - - {x: 0.055, y: -0.61}
      - {x: 0.105, y: -0.61}
      - {x: 0.175, y: -0.53}
      - {x: 0.125, y: -0.39999998}
      - {x: 0.325, y: -0.22}
      - {x: 0.39499998, y: -0.02}
      - {x: 0.545, y: 0.12}
      - {x: 0.545, y: 0.19}
      - {x: 0.475, y: 0.22999999}
      - {x: 0.415, y: 0.21}
      - {x: 0.345, y: 0.06}
      - {x: 0.355, y: 0.39}
      - {x: 0.275, y: 0.59}
      - {x: 0.125, y: 0.7}
      - {x: -0.13499999, y: 0.7}
      - {x: -0.21499999, y: 0.66999996}
      - {x: -0.345, y: 0.45}
      - {x: -0.39499998, y: 0.17999999}
      - {x: -0.505, y: 0.24}
      - {x: -0.545, y: 0.17999999}
      - {x: -0.545, y: 0.14999999}
      - {x: -0.415, y: 0.01}
      - {x: -0.345, y: -0.19999999}
      - {x: -0.16499999, y: -0.55}
      - {x: -0.125, y: -0.61}
      - {x: -0.065, y: -0.61}
      - {x: 0.005, y: -0.55}
      - {x: 0.005, y: -0.51}
      - {x: 0.015, y: -0.59999996}
    - - {x: -0.035, y: 0}
      - {x: -0.035, y: 0.32999998}
      - {x: 0.035, y: 0.32}
      - {x: 0.035, y: 0}
