%YAML 1.1
%TAG !u! tag:unity3d.com,2011:
--- !u!1 &5615890392196995348
GameObject:
  m_ObjectHideFlags: 0
  m_CorrespondingSourceObject: {fileID: 0}
  m_PrefabInstance: {fileID: 0}
  m_PrefabAsset: {fileID: 0}
  serializedVersion: 6
  m_Component:
  - component: {fileID: 5615890392196995354}
  - component: {fileID: 5615890392196995349}
  - component: {fileID: -2424380537233006653}
  m_Layer: 8
  m_Name: number5
  m_TagString: Obstacle
  m_Icon: {fileID: 0}
  m_NavMeshLayer: 0
  m_StaticEditorFlags: 0
  m_IsActive: 1
--- !u!4 &5615890392196995354
Transform:
  m_ObjectHideFlags: 0
  m_CorrespondingSourceObject: {fileID: 0}
  m_PrefabInstance: {fileID: 0}
  m_PrefabAsset: {fileID: 0}
  m_GameObject: {fileID: 5615890392196995348}
  m_LocalRotation: {x: 0, y: 0, z: 0, w: 1}
  m_LocalPosition: {x: 0, y: 0, z: 0}
  m_LocalScale: {x: 1, y: 1, z: 1}
  m_Children: []
  m_Father: {fileID: 0}
  m_RootOrder: 0
  m_LocalEulerAnglesHint: {x: 0, y: 0, z: 0}
--- !u!212 &5615890392196995349
SpriteRenderer:
  m_ObjectHideFlags: 0
  m_CorrespondingSourceObject: {fileID: 0}
  m_PrefabInstance: {fileID: 0}
  m_PrefabAsset: {fileID: 0}
  m_GameObject: {fileID: 5615890392196995348}
  m_Enabled: 1
  m_CastShadows: 0
  m_ReceiveShadows: 0
  m_DynamicOccludee: 1
  m_MotionVectors: 1
  m_LightProbeUsage: 1
  m_ReflectionProbeUsage: 1
  m_RayTracingMode: 0
  m_RenderingLayerMask: 1
  m_RendererPriority: 0
  m_Materials:
  - {fileID: 10754, guid: 0000000000000000f000000000000000, type: 0}
  m_StaticBatchInfo:
    firstSubMesh: 0
    subMeshCount: 0
  m_StaticBatchRoot: {fileID: 0}
  m_ProbeAnchor: {fileID: 0}
  m_LightProbeVolumeOverride: {fileID: 0}
  m_ScaleInLightmap: 1
  m_ReceiveGI: 1
  m_PreserveUVs: 0
  m_IgnoreNormalsForChartDetection: 0
  m_ImportantGI: 0
  m_StitchLightmapSeams: 1
  m_SelectedEditorRenderState: 0
  m_MinimumChartSize: 4
  m_AutoUVMaxDistance: 0.5
  m_AutoUVMaxAngle: 89
  m_LightmapParameters: {fileID: 0}
  m_SortingLayerID: 0
  m_SortingLayer: 0
  m_SortingOrder: 0
  m_Sprite: {fileID: 5471762307303527402, guid: 7cc135831f0c3453aaef95b7e2f7c1bd,
    type: 3}
  m_Color: {r: 1, g: 1, b: 1, a: 1}
  m_FlipX: 0
  m_FlipY: 0
  m_DrawMode: 0
  m_Size: {x: 0.97, y: 1.3}
  m_AdaptiveModeThreshold: 0.5
  m_SpriteTileMode: 0
  m_WasSpriteAssigned: 1
  m_MaskInteraction: 0
  m_SpriteSortPoint: 0
--- !u!60 &-2424380537233006653
PolygonCollider2D:
  m_ObjectHideFlags: 0
  m_CorrespondingSourceObject: {fileID: 0}
  m_PrefabInstance: {fileID: 0}
  m_PrefabAsset: {fileID: 0}
  m_GameObject: {fileID: 5615890392196995348}
  m_Enabled: 1
  m_Density: 1
  m_Material: {fileID: 0}
  m_IsTrigger: 0
  m_UsedByEffector: 0
  m_UsedByComposite: 0
  m_Offset: {x: 0, y: 0}
  m_SpriteTilingProperty:
    border: {x: 0, y: 0, z: 0, w: 0}
    pivot: {x: 0.5, y: 0.5}
    oldSize: {x: 0.97, y: 1.3}
    newSize: {x: 0.97, y: 1.3}
    adaptiveTilingThreshold: 0.5
    drawMode: 0
    adaptiveTiling: 0
  m_AutoTiling: 0
  m_Points:
    m_Paths:
    - - {x: 0.205, y: -0.38}
      - {x: 0.36499998, y: -0.21}
      - {x: 0.355, y: 0.13}
      - {x: 0.475, y: 0.32}
      - {x: 0.48499998, y: 0.37}
      - {x: 0.45499998, y: 0.42}
      - {x: 0.375, y: 0.41}
      - {x: 0.355, y: 0.37}
      - {x: 0.265, y: 0.24}
      - {x: 0.305, y: 0.38}
      - {x: 0.33499998, y: 0.56}
      - {x: 0.21499999, y: 0.65}
      - {x: -0.275, y: 0.65}
      - {x: -0.33499998, y: 0.56}
      - {x: -0.355, y: 0.39}
      - {x: -0.465, y: 0.42}
      - {x: -0.48499998, y: 0.41}
      - {x: -0.48499998, y: 0.31}
      - {x: -0.385, y: 0.16}
      - {x: -0.315, y: 0.03}
      - {x: -0.24499999, y: -0.02}
      - {x: -0.21499999, y: -0.03}
      - {x: -0.145, y: -0.03}
      - {x: -0.265, y: -0.03}
      - {x: -0.315, y: -0.049999997}
      - {x: -0.375, y: -0.099999994}
      - {x: -0.385, y: -0.26}
      - {x: -0.285, y: -0.38}
      - {x: -0.21499999, y: -0.56}
      - {x: -0.225, y: -0.59}
      - {x: -0.155, y: -0.65}
      - {x: -0.095, y: -0.65}
      - {x: -0.074999996, y: -0.64}
      - {x: -0.085, y: -0.59}
      - {x: 0.015, y: -0.65}
      - {x: 0.074999996, y: -0.65}
    - - {x: -0.035, y: 0.32999998}
      - {x: -0.024999999, y: 0.32}
      - {x: 0.015, y: 0.32}
      - {x: -0.024999999, y: 0.31}
